==27370== Memcheck, a memory error detector
==27370== Copyright (C) 2002-2013, and GNU GPL'd, by Julian Seward et al.
==27370== Using Valgrind-3.10.1 and LibVEX; rerun with -h for copyright info
==27370== Command: /rhome/n/nmusic1/workspace/ASP/Z16/Z1/.runme
==27370== Parent PID: 27355
==27370== 
==27370== 
==27370== HEAP SUMMARY:
==27370==     in use at exit: 0 bytes in 0 blocks
==27370==   total heap usage: 94 allocs, 94 frees, 5,123 bytes allocated
==27370== 
==27370== All heap blocks were freed -- no leaks are possible
==27370== 
==27370== For counts of detected and suppressed errors, rerun with: -v
==27370== ERROR SUMMARY: 0 errors from 0 contexts (suppressed: 0 from 0)
