==30895== Memcheck, a memory error detector
==30895== Copyright (C) 2002-2013, and GNU GPL'd, by Julian Seward et al.
==30895== Using Valgrind-3.10.1 and LibVEX; rerun with -h for copyright info
==30895== Command: /rhome/n/nmusic1/workspace/ASP/PZ10/Z1/.runme
==30895== Parent PID: 30838
==30895== 
==30895== 
==30895== HEAP SUMMARY:
==30895==     in use at exit: 1,056 bytes in 13 blocks
==30895==   total heap usage: 17 allocs, 4 frees, 1,619 bytes allocated
==30895== 
==30895== 1,056 (80 direct, 976 indirect) bytes in 1 blocks are definitely lost in loss record 9 of 9
==30895==    at 0x4C2B0E0: operator new(unsigned long) (in /usr/lib/valgrind/vgpreload_memcheck-amd64-linux.so)
==30895==    by 0x40152F: main (main.cpp:277)
==30895== 
==30895== LEAK SUMMARY:
==30895==    definitely lost: 80 bytes in 1 blocks
==30895==    indirectly lost: 976 bytes in 12 blocks
==30895==      possibly lost: 0 bytes in 0 blocks
==30895==    still reachable: 0 bytes in 0 blocks
==30895==         suppressed: 0 bytes in 0 blocks
==30895== 
==30895== For counts of detected and suppressed errors, rerun with: -v
==30895== ERROR SUMMARY: 1 errors from 1 contexts (suppressed: 0 from 0)
