==18457== Memcheck, a memory error detector
==18457== Copyright (C) 2002-2013, and GNU GPL'd, by Julian Seward et al.
==18457== Using Valgrind-3.10.1 and LibVEX; rerun with -h for copyright info
==18457== Command: /rhome/n/nmusic1/workspace/ASP/Z15/Z1/.runme
==18457== Parent PID: 18436
==18457== 
==18457== 
==18457== HEAP SUMMARY:
==18457==     in use at exit: 0 bytes in 0 blocks
==18457==   total heap usage: 0 allocs, 0 frees, 0 bytes allocated
==18457== 
==18457== All heap blocks were freed -- no leaks are possible
==18457== 
==18457== For counts of detected and suppressed errors, rerun with: -v
==18457== ERROR SUMMARY: 0 errors from 0 contexts (suppressed: 0 from 0)
